<svg width="240px" height="59px" viewBox="0 0 240 59" version="1.1" xmlns="http://www.w3.org/2000/svg" xmlns:xlink="http://www.w3.org/1999/xlink" id="HyQgdCZo5tG">
    <style type="text/css">
        @-webkit-keyframes B1HbuC-i5Kz_Animation{25.56%{opacity: 0;}52.22%{opacity: 1;}0%{opacity: 0;}100%{opacity: 1;}}@keyframes B1HbuC-i5Kz_Animation{25.56%{opacity: 0;}52.22%{opacity: 1;}0%{opacity: 0;}100%{opacity: 1;}}@-webkit-keyframes SyjlOAZsqtG_S1w3Ls9Fz_Animation{13.33%{-webkit-transform: rotate(83deg);transform: rotate(83deg);}88.89%{-webkit-transform: rotate(240deg);transform: rotate(240deg);}0%{-webkit-transform: rotate(83deg);transform: rotate(83deg);}100%{-webkit-transform: rotate(240deg);transform: rotate(240deg);}}@keyframes SyjlOAZsqtG_S1w3Ls9Fz_Animation{13.33%{-webkit-transform: rotate(83deg);transform: rotate(83deg);}88.89%{-webkit-transform: rotate(240deg);transform: rotate(240deg);}0%{-webkit-transform: rotate(83deg);transform: rotate(83deg);}100%{-webkit-transform: rotate(240deg);transform: rotate(240deg);}}@-webkit-keyframes SyjlOAZsqtG_Animation{13.33%{opacity: 0;}52.22%{opacity: 1;}0%{opacity: 0;}100%{opacity: 1;}}@keyframes SyjlOAZsqtG_Animation{13.33%{opacity: 0;}52.22%{opacity: 1;}0%{opacity: 0;}100%{opacity: 1;}}@-webkit-keyframes r15lORboqKG_H1xTHjcYG_Animation{25.56%{-webkit-transform: rotate(43deg);transform: rotate(43deg);}83.33%{-webkit-transform: rotate(90deg);transform: rotate(90deg);}0%{-webkit-transform: rotate(43deg);transform: rotate(43deg);}100%{-webkit-transform: rotate(90deg);transform: rotate(90deg);}}@keyframes r15lORboqKG_H1xTHjcYG_Animation{25.56%{-webkit-transform: rotate(43deg);transform: rotate(43deg);}83.33%{-webkit-transform: rotate(90deg);transform: rotate(90deg);}0%{-webkit-transform: rotate(43deg);transform: rotate(43deg);}100%{-webkit-transform: rotate(90deg);transform: rotate(90deg);}}@-webkit-keyframes ry7-u0-oqKM_Animation{17.78%{opacity: 0;}50%{opacity: 1;}0%{opacity: 0;}100%{opacity: 1;}}@keyframes ry7-u0-oqKM_Animation{17.78%{opacity: 0;}50%{opacity: 1;}0%{opacity: 0;}100%{opacity: 1;}}@-webkit-keyframes HJzZu0WoctM_Animation{17.78%{opacity: 0;}50%{opacity: 1;}0%{opacity: 0;}100%{opacity: 1;}}@keyframes HJzZu0WoctM_Animation{17.78%{opacity: 0;}50%{opacity: 1;}0%{opacity: 0;}100%{opacity: 1;}}@-webkit-keyframes HJ6luCWo5Kf_Animation{43.33%{opacity: 0;}68.89%{opacity: 1;}0%{opacity: 0;}100%{opacity: 1;}}@keyframes HJ6luCWo5Kf_Animation{43.33%{opacity: 0;}68.89%{opacity: 1;}0%{opacity: 0;}100%{opacity: 1;}}@-webkit-keyframes BJU-_RWsqKG_Animation{24.44%{opacity: 0;}48.89%{opacity: 0;}0%{opacity: 0;}100%{opacity: 0;}}@keyframes BJU-_RWsqKG_Animation{24.44%{opacity: 0;}48.89%{opacity: 0;}0%{opacity: 0;}100%{opacity: 0;}}@-webkit-keyframes Bk3ldC-j5Ff_Animation{36.67%{opacity: 0;}43.33%{opacity: 0;}68.89%{opacity: 1;}0%{opacity: 0;}100%{opacity: 1;}}@keyframes Bk3ldC-j5Ff_Animation{36.67%{opacity: 0;}43.33%{opacity: 0;}68.89%{opacity: 1;}0%{opacity: 0;}100%{opacity: 1;}}@-webkit-keyframes BJDxO0-jqtz_Animation{18.89%{opacity: 0;}37.78%{opacity: 1;}0%{opacity: 0;}100%{opacity: 1;}}@keyframes BJDxO0-jqtz_Animation{18.89%{opacity: 0;}37.78%{opacity: 1;}0%{opacity: 0;}100%{opacity: 1;}}@-webkit-keyframes HyKgORWj9tG_Animation{15.56%{opacity: 0;}43.33%{opacity: 1;}0%{opacity: 0;}100%{opacity: 1;}}@keyframes HyKgORWj9tG_Animation{15.56%{opacity: 0;}43.33%{opacity: 1;}0%{opacity: 0;}100%{opacity: 1;}}@-webkit-keyframes r15lORboqKG_Animation{25.56%{opacity: 0;}46.67%{opacity: 1;}0%{opacity: 0;}100%{opacity: 1;}}@keyframes r15lORboqKG_Animation{25.56%{opacity: 0;}46.67%{opacity: 1;}0%{opacity: 0;}100%{opacity: 1;}}@-webkit-keyframes HkUld0WjcYG_Animation{5.56%{opacity: 0;}24.44%{opacity: 1;}0%{opacity: 0;}100%{opacity: 1;}}@keyframes HkUld0WjcYG_Animation{5.56%{opacity: 0;}24.44%{opacity: 1;}0%{opacity: 0;}100%{opacity: 1;}}@-webkit-keyframes ByEbO0ZsqtG_Animation{6.67%{opacity: 0;}30%{opacity: 1;}0%{opacity: 0;}100%{opacity: 1;}}@keyframes ByEbO0ZsqtG_Animation{6.67%{opacity: 0;}30%{opacity: 1;}0%{opacity: 0;}100%{opacity: 1;}}@-webkit-keyframes BkugO0Zj9Yf_Animation{11.11%{opacity: 0;}50%{opacity: 1;}0%{opacity: 0;}100%{opacity: 1;}}@keyframes BkugO0Zj9Yf_Animation{11.11%{opacity: 0;}50%{opacity: 1;}0%{opacity: 0;}100%{opacity: 1;}}#HyQgdCZo5tG *{-webkit-animation-duration: 3s;animation-duration: 3s;-webkit-animation-iteration-count: infinite;animation-iteration-count: infinite;-webkit-animation-timing-function: cubic-bezier(0, 0, 1, 1);animation-timing-function: cubic-bezier(0, 0, 1, 1);transform-box: fill-box;-webkit-transform-origin: 50% 50%;transform-origin: 50% 50%;}#SJEx_0Wo9Kz{stroke: none;stroke-width: 1;fill: none;}#HJBeuA-j5tM{-webkit-transform:  translate(-2.000000,px, 1.000000px);transform:  translate(-2.000000,px, 1.000000px);}#HkUld0WjcYG{stroke: #BD10E0;-webkit-animation-name: HkUld0WjcYG_Animation;animation-name: HkUld0WjcYG_Animation;-webkit-transform-origin: undefined;transform-origin: undefined;}#BJDxO0-jqtz{stroke: #BD10E0;-webkit-animation-name: BJDxO0-jqtz_Animation;animation-name: BJDxO0-jqtz_Animation;-webkit-transform-origin: undefined;transform-origin: undefined;}#BkugO0Zj9Yf{fill: #4A90E2;-webkit-animation-name: BkugO0Zj9Yf_Animation;animation-name: BkugO0Zj9Yf_Animation;-webkit-transform-origin: undefined;transform-origin: undefined;}#HyKgORWj9tG{fill: #D0021B;-webkit-animation-name: HyKgORWj9tG_Animation;animation-name: HyKgORWj9tG_Animation;-webkit-transform-origin: undefined;transform-origin: undefined;}#r15lORboqKG{stroke: #4A90E2;-webkit-transform:  translate(69.233233,px, 47.360084px) rotate(43.000000deg) translate(-69.233233,px, -47.360084px);transform:  translate(69.233233,px, 47.360084px) rotate(43.000000deg) translate(-69.233233,px, -47.360084px);-webkit-animation-name: r15lORboqKG_Animation;animation-name: r15lORboqKG_Animation;-webkit-transform-origin: undefined;transform-origin: undefined;}#SyjlOAZsqtG{stroke: #50E3C2;-webkit-transform:  translate(172.888019,px, 5.014870px) rotate(83.000000deg) translate(-172.888019,px, -5.014870px);transform:  translate(172.888019,px, 5.014870px) rotate(83.000000deg) translate(-172.888019,px, -5.014870px);-webkit-transform-origin: undefined;transform-origin: undefined;-webkit-animation-name: SyjlOAZsqtG_Animation;animation-name: SyjlOAZsqtG_Animation;}#Bk3ldC-j5Ff{stroke: #D0021B;-webkit-animation-name: Bk3ldC-j5Ff_Animation;animation-name: Bk3ldC-j5Ff_Animation;-webkit-transform-origin: undefined;transform-origin: undefined;}#HJ6luCWo5Kf{stroke: #D0021B;-webkit-transform-origin: undefined;transform-origin: undefined;-webkit-animation-name: HJ6luCWo5Kf_Animation;animation-name: HJ6luCWo5Kf_Animation;}#BkAld0Zs9YG{-webkit-transform:  translate(164.000000,px, 41.126851px) rotate(20.000000deg) translate(-164.000000,px, -41.126851px) translate(160.000000,px, 37.126851px);transform:  translate(164.000000,px, 41.126851px) rotate(20.000000deg) translate(-164.000000,px, -41.126851px) translate(160.000000,px, 37.126851px);stroke: #B8E986;}#Bybbd0Zjqtz{-webkit-transform:  translate(6.000000,px, 11.126851px) rotate(70.000000deg) translate(-6.000000,px, -11.126851px) translate(2.000000,px, 7.126851px);transform:  translate(6.000000,px, 11.126851px) rotate(70.000000deg) translate(-6.000000,px, -11.126851px) translate(2.000000,px, 7.126851px);stroke: #F5A623;}#ByEbO0ZsqtG{-webkit-transform:  translate(238.000000,px, 26.126851px) rotate(110.000000deg) translate(-238.000000,px, -26.126851px) translate(234.000000,px, 22.126851px);transform:  translate(238.000000,px, 26.126851px) rotate(110.000000deg) translate(-238.000000,px, -26.126851px) translate(234.000000,px, 22.126851px);stroke: #F5A623;-webkit-animation-name: ByEbO0ZsqtG_Animation;animation-name: ByEbO0ZsqtG_Animation;-webkit-transform-origin: undefined;transform-origin: undefined;visibility: hidden;}#BJU-_RWsqKG{-webkit-animation-name: BJU-_RWsqKG_Animation;animation-name: BJU-_RWsqKG_Animation;-webkit-transform-origin: undefined;transform-origin: undefined;}#B1HbuC-i5Kz{-webkit-transform-origin: undefined;transform-origin: undefined;-webkit-animation-name: B1HbuC-i5Kz_Animation;animation-name: B1HbuC-i5Kz_Animation;}#HJzZu0WoctM{-webkit-animation-name: HJzZu0WoctM_Animation;animation-name: HJzZu0WoctM_Animation;-webkit-transform-origin: undefined;transform-origin: undefined;}#ry7-u0-oqKM{-webkit-animation-name: ry7-u0-oqKM_Animation;animation-name: ry7-u0-oqKM_Animation;-webkit-transform-origin: undefined;transform-origin: undefined;}#r15lORboqKG_H1xTHjcYG{-webkit-transform-origin: undefined;transform-origin: undefined;-webkit-animation-name: r15lORboqKG_H1xTHjcYG_Animation;animation-name: r15lORboqKG_H1xTHjcYG_Animation;}#Bk3ldC-j5Ff_HJeNUscKf{-webkit-transform-origin: undefined;transform-origin: undefined;}#SyjlOAZsqtG_HyjDIiqKz{-webkit-transform-origin: undefined;transform-origin: undefined;}#SyjlOAZsqtG_S1w3Ls9Fz{-webkit-animation-name: SyjlOAZsqtG_S1w3Ls9Fz_Animation;animation-name: SyjlOAZsqtG_S1w3Ls9Fz_Animation;-webkit-transform-origin: undefined;transform-origin: undefined;}
    </style>
    <title>
        Group 27
    </title>
    <desc>
        Created with Sketch.
    </desc>
    <defs/>
    <g id="SJEx_0Wo9Kz" fill-rule="evenodd">
        <g id="HJBeuA-j5tM">
            <circle id="HkUld0WjcYG" cx="45.3731489" cy="9.5" r="4.5"/>
            <circle id="BJDxO0-jqtz" cx="219.595805" cy="54.7226562" r="2.72265625"/>
            <circle id="BkugO0Zj9Yf" cx="14.975688" cy="39.1025391" r="2.10253906"/>
            <circle id="HyKgORWj9tG" cx="204.975688" cy="30.1025391" r="2.10253906"/>
            <g id="r15lORboqKG_H1xTHjcYG" data-animator-group="true" data-animator-type="1">
                <polygon id="r15lORboqKG" points="69.2332332 42.8600843 73.7332332 51.8600843 64.7332332 51.8600843"/>
            </g>
            <g id="SyjlOAZsqtG_S1w3Ls9Fz" data-animator-group="true" data-animator-type="1">
                <polygon id="SyjlOAZsqtG" points="172.888019 0.514869728 177.388019 9.51486973 168.388019 9.51486973"/>
            </g>
            <path d="M78.8731489,0 L78.8731489,8" id="Bk3ldC-j5Ff" stroke-linecap="round"/>
            <path d="M82.8731489,4 L74.8731489,4" id="HJ6luCWo5Kf" stroke-linecap="round"/>
            <g id="BkAld0Zs9YG" stroke-linecap="round">
                <path d="M4,0 L4,8" id="HkkWuC-o9tf"/>
                <path d="M8,4 L0,4" id="SkgZOA-s5YG"/>
            </g>
            <g id="Bybbd0Zjqtz" stroke-linecap="round">
                <path d="M4,0 L4,8" id="HJzZu0WoctM"/>
                <path d="M8,4 L0,4" id="ry7-u0-oqKM"/>
            </g>
            <g id="ByEbO0ZsqtG" stroke-linecap="round">
                <path d="M4,0 L4,8" id="B1HbuC-i5Kz"/>
                <path d="M8,4 L0,4" id="BJU-_RWsqKG"/>
            </g>
        </g>
    </g>
</svg>