<?xml version="1.0" encoding="UTF-8"?>
<svg width="1920px" height="1917px" viewBox="0 0 1920 1917" version="1.1" xmlns="http://www.w3.org/2000/svg" xmlns:xlink="http://www.w3.org/1999/xlink">
    <!-- Generator: Sketch 49.3 (51167) - http://www.bohemiancoding.com/sketch -->
    <title>Group 18</title>
    <desc>Created with Sketch.</desc>
    <defs>
        <linearGradient x1="64.8974609%" y1="35.3742827%" x2="0%" y2="98.415493%" id="linearGradient-1">
            <stop stop-color="#FDFEFF" offset="0%"></stop>
            <stop stop-color="#77ABFF" offset="100%"></stop>
        </linearGradient>
        <rect id="path-2" x="0" y="0" width="1920" height="1917"></rect>
        <linearGradient x1="50.2292342%" y1="40.2185691%" x2="-2.752958%" y2="21.905966%" id="linearGradient-4">
            <stop stop-color="#00FFE9" offset="0%"></stop>
            <stop stop-color="#3D6DF6" offset="100%"></stop>
        </linearGradient>
        <linearGradient x1="100%" y1="92.989953%" x2="45.2793193%" y2="8.49809368%" id="linearGradient-5">
            <stop stop-color="#FFFFFF" offset="0%"></stop>
            <stop stop-color="#F6F4FF" offset="100%"></stop>
        </linearGradient>
        <polygon id="path-6" points="0 0 1920 0 1920 1172.625 0 935.609375"></polygon>
        <linearGradient x1="22.3411742%" y1="33.7158294%" x2="61.4041316%" y2="53.2379985%" id="linearGradient-8">
            <stop stop-color="#98C2FF" offset="0%"></stop>
            <stop stop-color="#E4CFFF" offset="100%"></stop>
        </linearGradient>
        <linearGradient x1="8.79852396%" y1="100%" x2="23.0672435%" y2="43.8817045%" id="linearGradient-9">
            <stop stop-color="#FFFFFF" offset="0%"></stop>
            <stop stop-color="#71D2FF" offset="0%"></stop>
            <stop stop-color="#FF9A71" offset="100%"></stop>
        </linearGradient>
    </defs>
    <g id="Symbols" stroke="none" stroke-width="1" fill="none" fill-rule="evenodd">
        <g id="BG-/-Google-+-FB">
            <g id="Group-18" transform="translate(960.000000, 958.500000) scale(-1, 1) translate(-960.000000, -958.500000) ">
                <mask id="mask-3" fill="white">
                    <use xlink:href="#path-2"></use>
                </mask>
                <use id="Mask" fill="url(#linearGradient-1)" opacity="0.672214674" xlink:href="#path-2"></use>
                <path d="M532.554832,-731.61165 L44.2969784,1269.24858 C2189.35871,-125.286734 3261.88958,-822.554391 3261.88958,-822.554391 C3261.88958,-822.554391 2352.11133,-792.240144 532.554832,-731.61165 Z" id="Path-2" fill="url(#linearGradient-4)" opacity="0.101392663" mask="url(#mask-3)" transform="translate(1653.093280, 223.347094) rotate(229.000000) translate(-1653.093280, -223.347094) "></path>
                <g id="BG" mask="url(#mask-3)">
                    <mask id="mask-7" fill="white">
                        <use xlink:href="#path-6"></use>
                    </mask>
                    <use id="Mask" fill="url(#linearGradient-5)" xlink:href="#path-6"></use>
                    <polygon id="Path-3" fill="url(#linearGradient-8)" opacity="0.185575181" mask="url(#mask-7)" points="1927.09229 -40 2316.44531 275.226563 1062 -40"></polygon>
                    <path d="M1623.933,23.7334282 L1391.23452,977.322048 C2413.54804,312.701408 2924.7048,-19.6089113 2924.7048,-19.6089113 C2924.7048,-19.6089113 2491.1142,-5.16146482 1623.933,23.7334282 Z" id="Path-2" fill="url(#linearGradient-9)" opacity="0.0944293478" mask="url(#mask-7)" transform="translate(2157.969661, 478.856568) rotate(17.000000) translate(-2157.969661, -478.856568) "></path>
                </g>
            </g>
        </g>
    </g>
</svg>