<?xml version="1.0" encoding="UTF-8"?>
<svg width="2560px" height="500px" viewBox="0 0 2560 500" version="1.1" xmlns="http://www.w3.org/2000/svg" xmlns:xlink="http://www.w3.org/1999/xlink">
    <!-- Generator: Sketch 50.2 (55047) - http://www.bohemiancoding.com/sketch -->
    <title>BG DARK</title>
    <desc>Created with Sketch.</desc>
    <defs>
        <linearGradient x1="50%" y1="0%" x2="50%" y2="100%" id="linearGradient-1">
            <stop stop-color="#FDFFFF" offset="0%"></stop>
            <stop stop-color="#EFF9FF" offset="100%"></stop>
        </linearGradient>
        <rect id="path-2" x="0" y="0" width="2560" height="500"></rect>
    </defs>
    <g id="Symbols" stroke="none" stroke-width="1" fill="none" fill-rule="evenodd">
        <g id="CTA-/-1">
            <g id="BG-DARK">
                <mask id="mask-3" fill="white">
                    <use xlink:href="#path-2"></use>
                </mask>
                <rect stroke="#C5E7FF" x="0.5" y="0.5" width="2559" height="499"></rect>
                <polygon id="Path-5" stroke="#AFE1FF" opacity="0.319689764" mask="url(#mask-3)" points="-404 621 186 -94 857 621"></polygon>
                <path d="M2632,-54 C2632,-54 2480.33333,112.666667 2177,446 L1731,-54 C2331.66667,-54 2632,-54 2632,-54 Z" id="Path-7" stroke="#AFE1FF" opacity="0.319689764" mask="url(#mask-3)"></path>
                <path d="M823,-114 C823,-114 671.333333,52.6666667 368,386 L-78,-114 C522.666667,-114 823,-114 823,-114 Z" id="Path-7-Copy" stroke="#AFE1FF" opacity="0.319689764" mask="url(#mask-3)"></path>
                <path d="M2829.77435,-456.103936 C2829.77435,-456.103936 2678.10768,-289.437269 2374.77435,43.8960641 L1928.77435,-456.103936 C2529.44102,-456.103936 2829.77435,-456.103936 2829.77435,-456.103936 Z" id="Path-7-Copy-2" stroke="#AFE1FF" opacity="0.319689764" mask="url(#mask-3)" transform="translate(2379.274351, -206.103936) rotate(-63.000000) translate(-2379.274351, 206.103936) "></path>
                <polygon id="Path-6" stroke="#AFE1FF" opacity="0.319689764" mask="url(#mask-3)" points="2255 146 1485 450 1775.36036 698"></polygon>
            </g>
        </g>
    </g>
</svg>